<svg width="25" height="14" viewBox="0 0 25 14" fill="none" xmlns="http://www.w3.org/2000/svg">
<path d="M8.625 12.8438C8.625 12.5868 8.72706 12.3404 8.90874 12.1587C9.09042 11.9771 9.33682 11.875 9.59375 11.875H15.4062C15.6632 11.875 15.9096 11.9771 16.0913 12.1587C16.2729 12.3404 16.375 12.5868 16.375 12.8438C16.375 13.1007 16.2729 13.3471 16.0913 13.5288C15.9096 13.7104 15.6632 13.8125 15.4062 13.8125H9.59375C9.33682 13.8125 9.09042 13.7104 8.90874 13.5288C8.72706 13.3471 8.625 13.1007 8.625 12.8438ZM4.75 7.03125C4.75 6.77432 4.85206 6.52792 5.03374 6.34624C5.21542 6.16456 5.46182 6.0625 5.71875 6.0625H19.2812C19.5382 6.0625 19.7846 6.16456 19.9663 6.34624C20.1479 6.52792 20.25 6.77432 20.25 7.03125C20.25 7.28818 20.1479 7.53458 19.9663 7.71626C19.7846 7.89794 19.5382 8 19.2812 8H5.71875C5.46182 8 5.21542 7.89794 5.03374 7.71626C4.85206 7.53458 4.75 7.28818 4.75 7.03125ZM0.875 1.21875C0.875 0.961821 0.977065 0.715416 1.15874 0.53374C1.34042 0.352065 1.58682 0.25 1.84375 0.25H23.1562C23.4132 0.25 23.6596 0.352065 23.8413 0.53374C24.0229 0.715416 24.125 0.961821 24.125 1.21875C24.125 1.47568 24.0229 1.72208 23.8413 1.90376C23.6596 2.08544 23.4132 2.1875 23.1562 2.1875H1.84375C1.58682 2.1875 1.34042 2.08544 1.15874 1.90376C0.977065 1.72208 0.875 1.47568 0.875 1.21875Z" fill="black"/>
</svg>
