<svg width="202" height="165" viewBox="0 0 202 165" fill="none" xmlns="http://www.w3.org/2000/svg">
<path fill-rule="evenodd" clip-rule="evenodd" d="M111.746 3.90632C139.683 4.96748 171.853 -2.21588 190.03 18.8414C208.579 40.3277 201.967 72.1753 194.16 99.3757C186.984 124.38 173.498 147.928 149.792 159.046C126.266 170.081 100.045 164.047 75.6942 154.939C47.1862 144.275 15.0348 133.399 4.99082 104.883C-6.03114 73.5895 1.36707 35.476 25.5582 12.5942C47.539 -8.19683 81.3862 2.75317 111.746 3.90632Z" fill="#ECF1FF"/>
<path d="M74.0122 13.9218L24.6992 77.9888L157.319 45.0202L83.451 11.5544C81.8417 10.824 80.0325 10.6604 78.3183 11.0904C76.6041 11.5203 75.0862 12.5184 74.0122 13.9218Z" fill="#EBEBEB"/>
<path d="M24 78.4447L73.7948 13.7613C74.9052 12.3068 76.4778 11.2737 78.2536 10.8321C80.0295 10.3905 81.9028 10.5667 83.5651 11.3316L158.164 45.1239L24 78.4447ZM80.2082 11.0985C79.0498 11.0993 77.9074 11.3681 76.8702 11.884C75.8331 12.3999 74.9294 13.1488 74.2299 14.0721L25.3935 77.5381L156.491 44.9477L83.3424 11.7927C82.3574 11.3486 81.2886 11.1207 80.2082 11.1244V11.0985Z" fill="#E0E0E0"/>
<path d="M24.6958 77.9912L157.783 44.9075L175.713 117.037C176.068 118.465 175.841 119.975 175.083 121.236C174.324 122.497 173.095 123.405 171.667 123.76L49.349 154.166C47.921 154.521 46.4104 154.294 45.1496 153.536C43.8889 152.777 42.9811 151.548 42.6261 150.12L24.6958 77.9912Z" fill="#F0F0F0"/>
<path d="M149.59 48.859L103.484 95.9651L33.7962 80.2786L25.8234 43.3159C25.3822 41.4092 25.7079 39.4056 26.7303 37.7368C27.7526 36.0681 29.3898 34.8679 31.2889 34.3951L132.101 9.33711C133.051 9.10002 134.039 9.05269 135.008 9.19785C135.977 9.343 136.907 9.67778 137.746 10.183C138.586 10.6883 139.317 11.3541 139.899 12.1423C140.48 12.9305 140.901 13.8257 141.136 14.7766L149.59 48.859Z" fill="white"/>
<path d="M97.1538 92.2611L42.4014 149.474C42.5947 150.252 42.9394 150.985 43.4159 151.629C43.8924 152.274 44.4912 152.819 45.1782 153.232C45.8652 153.645 46.6269 153.919 47.4198 154.038C48.2126 154.157 49.0211 154.118 49.7991 153.924L171.178 123.748C172.748 123.358 174.099 122.359 174.933 120.973C175.768 119.587 176.018 117.926 175.628 116.355L175.514 115.9L103.92 90.6448C102.756 90.2335 101.498 90.1673 100.298 90.4541C99.0977 90.7408 98.0059 91.3683 97.1538 92.2611Z" fill="#E0E0E0"/>
<path d="M79.6609 39.8521L40.2222 49.6633L41.2239 53.6902L80.6627 43.8789L79.6609 39.8521Z" fill="#E0E0E0"/>
<path d="M130.265 38.1041L42.7607 59.8727L43.8926 64.4223L131.397 42.6537L130.265 38.1041Z" fill="#E0E0E0"/>
<path d="M133.033 49.2194L45.5288 70.988L46.6606 75.5377L134.165 53.7691L133.033 49.2194Z" fill="#E0E0E0"/>
<path d="M134.873 63.9498L132.132 66.6903L58.673 85.8943L49.0736 83.6512L48.7109 82.6099L135.935 60.9141L136.313 62.4216L134.873 63.9498Z" fill="#E0E0E0"/>
<path d="M116.083 83.0916L82.99 91.3182L72.8726 89.0077L122.331 76.7041L116.083 83.0916Z" fill="#E0E0E0"/>
<path d="M95.1536 94.3436C95.1536 94.3436 95.1173 94.4006 95.0292 94.499L94.6355 94.929L93.1125 96.5609L87.4709 102.534C82.6945 107.564 76.0739 114.516 68.7435 122.137C61.4131 129.757 54.6785 136.596 49.7674 141.496C47.3119 143.947 45.3122 145.926 43.9238 147.278L42.3231 148.832L41.8983 149.231C41.854 149.28 41.8035 149.324 41.748 149.36C41.7863 149.306 41.8297 149.256 41.8776 149.21L42.2816 148.79L43.8358 147.2L49.6224 141.362C54.4972 136.425 61.1956 129.571 68.5415 121.945C75.8874 114.32 82.5288 107.44 87.3207 102.399L93.0192 96.4883L94.5734 94.8928L94.9878 94.4835C95.1018 94.3851 95.1536 94.3436 95.1536 94.3436Z" fill="#FAFAFA"/>
<path d="M175.514 115.889C175.488 115.962 160.221 110.662 141.416 104.052C122.611 97.4415 107.385 92.0227 107.411 91.9502C107.437 91.8777 122.704 97.1721 141.509 103.782C160.314 110.393 175.54 115.811 175.514 115.889Z" fill="#FAFAFA"/>
<path d="M151.781 46.59C151.753 46.6361 151.72 46.6795 151.683 46.7195L151.393 47.0769L150.165 48.4394L145.591 53.4075C141.716 57.5881 136.318 63.3177 130.267 69.5706C124.216 75.8234 118.632 81.4028 114.58 85.4125L109.757 90.1371L108.431 91.4063L108.084 91.7326C108.001 91.8052 107.96 91.8414 107.955 91.8363C107.987 91.792 108.024 91.7504 108.063 91.7119L108.39 91.3648L109.68 90.0594L114.435 85.2726C118.455 81.2266 123.983 75.6214 130.034 69.3737C136.085 63.126 141.503 57.4379 145.42 53.2935L150.056 48.3876L151.326 47.0614L151.662 46.7195C151.697 46.6716 151.737 46.6281 151.781 46.59Z" fill="#FAFAFA"/>
<path d="M95.1537 94.3436C95.0923 94.3402 95.0314 94.3298 94.9724 94.3125L94.4543 94.1882L92.3822 93.6702C90.6104 93.2246 88.0357 92.5978 84.8497 91.8518C78.4829 90.3443 69.6502 88.4016 59.8902 86.288C50.1302 84.1744 41.3026 82.2006 34.9462 80.6413C31.7654 79.8642 29.1959 79.2115 27.4293 78.7348L25.3934 78.1805L24.8754 78.0303C24.8142 78.0174 24.755 77.9965 24.6992 77.9681L24.8805 78.0044L25.3986 78.1235L27.4708 78.6416C29.2477 79.0871 31.8224 79.7088 35.0084 80.4599C41.3752 81.9675 50.2027 83.9101 59.9679 86.0238C69.7331 88.1374 78.5555 90.1112 84.9119 91.6705C88.0927 92.4476 90.6622 93.0951 92.4288 93.5769L94.4595 94.1312L94.9776 94.2815L95.1537 94.3436Z" fill="#FAFAFA"/>
<path d="M149.59 48.859C149.59 48.859 149.538 48.6881 149.45 48.341L149.072 46.8749C148.74 45.5746 148.259 43.6734 147.637 41.223L142.42 20.4389C142.144 19.3407 141.863 18.2165 141.576 17.0664C141.436 16.4966 141.291 15.9112 141.141 15.3258C141.068 15.0305 140.996 14.7352 140.902 14.4503C140.821 14.1594 140.717 13.8753 140.592 13.6007C140.078 12.4385 139.271 11.4302 138.248 10.6753C137.226 9.92036 136.025 9.44488 134.764 9.29573C134.109 9.20513 133.445 9.20513 132.79 9.29573C132.137 9.4097 131.474 9.59101 130.806 9.75161L126.739 10.7877L118.238 12.8858L80.467 22.3143L42.6495 31.7013L34.1587 33.8046L32.0865 34.3226C31.4139 34.4623 30.7551 34.6617 30.1179 34.9184C28.8889 35.4511 27.8286 36.309 27.0511 37.3998C26.6748 37.9299 26.3684 38.5062 26.1393 39.1145C25.9257 39.7155 25.7848 40.3399 25.7197 40.9743C25.5695 42.2436 25.9217 43.4662 26.1704 44.6732C26.6884 47.0908 27.184 49.4064 27.6572 51.6202C29.5481 60.4737 31.0763 67.6331 32.1331 72.5908C32.6512 75.0671 33.0604 76.9838 33.3402 78.2893C33.4697 78.9369 33.5733 79.4342 33.6458 79.7761C33.7184 80.118 33.7391 80.2942 33.7391 80.2942C33.7391 80.2942 33.6924 80.1232 33.6147 79.7761C33.537 79.429 33.4282 78.9421 33.2832 78.2997C32.9931 76.989 32.5735 75.0722 32.0295 72.6012C30.9468 67.6486 29.3875 60.4892 27.4603 51.6513C26.9837 49.4392 26.476 47.1236 25.9528 44.7043C25.7042 43.5128 25.3415 42.2487 25.4969 40.9381C25.5565 40.282 25.6992 39.6362 25.9217 39.0161C26.1584 38.3884 26.4735 37.7931 26.8594 37.2444C27.2519 36.6859 27.721 36.1854 28.2529 35.7576C28.7856 35.3135 29.3809 34.9504 30.0195 34.6801C30.6677 34.4155 31.3388 34.2109 32.0243 34.0688L34.0965 33.5507L42.6029 31.4474L80.4204 22.0397L118.238 12.6527L126.729 10.5494L130.795 9.54439C131.464 9.37861 132.116 9.20248 132.8 9.08333C133.799 8.93417 134.817 8.98563 135.796 9.23469C136.774 9.48376 137.693 9.92542 138.499 10.5339C139.524 11.3099 140.334 12.3354 140.851 13.5126C140.981 13.7956 141.088 14.0883 141.172 14.3881C141.265 14.6834 141.338 14.9787 141.41 15.274C141.555 15.8594 141.695 16.4448 141.84 17.0198C142.125 18.1699 142.4 19.294 142.674 20.3923L147.803 41.2126C148.399 43.6682 148.865 45.5746 149.181 46.8749C149.336 47.5225 149.455 48.0146 149.533 48.3513C149.611 48.6881 149.59 48.859 149.59 48.859Z" fill="#E0E0E0"/>
</svg>
