<svg width="202" height="175" viewBox="0 0 202 175" fill="none" xmlns="http://www.w3.org/2000/svg">
<path fill-rule="evenodd" clip-rule="evenodd" d="M111.746 13.9063C139.683 14.9675 171.853 7.78412 190.03 28.8414C208.579 50.3277 201.967 82.1753 194.16 109.376C186.984 134.38 173.498 157.928 149.792 169.046C126.266 180.081 100.045 174.047 75.6942 164.939C47.1862 154.275 15.0348 143.399 4.99082 114.883C-6.03114 83.5895 1.36707 45.476 25.5582 22.5942C47.539 1.80317 81.3862 12.7532 111.746 13.9063Z" fill="#ECF1FF"/>
<path d="M74.9638 2.99213C65.5293 7.07132 58.0172 14.9223 54.0751 24.8231C50.1329 34.7239 50.0826 45.8661 53.9351 55.8059L77.8201 117.168L88.4783 112.557L64.604 51.1842C61.9016 44.2372 61.932 36.4448 64.6883 29.5213C67.4447 22.5978 72.7012 17.1104 79.3016 14.2661C85.902 11.4218 93.3056 11.4538 99.8837 14.3549C106.462 17.2559 111.675 22.7886 114.378 29.7356L125.089 25.1138C121.216 15.1959 113.765 7.29849 104.369 3.15196C94.9737 -0.99456 84.3995 -1.05203 74.9638 2.99213Z" fill="#0047CB"/>
<g opacity="0.3">
<path opacity="0.3" d="M74.9638 2.99213C65.5293 7.07132 58.0172 14.9223 54.0751 24.8231C50.1329 34.7239 50.0826 45.8661 53.9351 55.8059L77.8201 117.168L88.4783 112.557L64.604 51.1842C61.9016 44.2372 61.932 36.4448 64.6883 29.5213C67.4447 22.5978 72.7012 17.1104 79.3016 14.2661C85.902 11.4218 93.3056 11.4538 99.8837 14.3549C106.462 17.2559 111.675 22.7886 114.378 29.7356L125.089 25.1138C121.216 15.1959 113.765 7.29849 104.369 3.15196C94.9737 -0.99456 84.3995 -1.05203 74.9638 2.99213Z" fill="black"/>
</g>
<path d="M145.057 56.3104L60.5591 92.7309C57.3942 94.0951 55.8793 97.9013 57.1754 101.232L77.6943 153.968C78.9903 157.3 82.6066 158.894 85.7715 157.53L170.269 121.109C173.434 119.745 174.949 115.939 173.653 112.608L153.134 59.8718C151.838 56.5408 148.222 54.9462 145.057 56.3104Z" fill="#0047CB"/>
<g opacity="0.5">
<path opacity="0.5" d="M120.133 95.0236C119.527 93.4494 118.516 92.0846 117.213 91.0827C115.91 90.0809 114.367 89.4818 112.759 89.353C111.15 89.2243 109.538 89.5709 108.107 90.3539C106.675 91.1369 105.479 92.3251 104.654 93.7847C103.829 95.2444 103.408 96.9174 103.438 98.6154C103.468 100.313 103.947 101.969 104.823 103.396C105.698 104.822 106.935 105.963 108.393 106.69C109.852 107.417 111.474 107.7 113.077 107.509L117.98 120.129L122.361 118.245L117.447 105.624C118.931 104.407 119.997 102.712 120.482 100.799C120.967 98.8852 120.844 96.8572 120.133 95.0236Z" fill="black"/>
</g>
<path d="M82.7548 151.652C82.531 151.753 78.1505 141.017 72.9706 127.69C67.7907 114.363 63.7512 103.482 63.9751 103.381C64.1989 103.28 68.5794 114.016 73.7593 127.354C78.9392 140.692 82.968 151.562 82.7548 151.652Z" fill="#FAFAFA"/>
<path d="M110.04 112.019C109.65 112.047 109.259 111.994 108.889 111.862C107.854 111.572 106.866 111.122 105.958 110.527C104.415 109.57 103.093 108.265 102.086 106.707C101.08 105.148 100.413 103.374 100.135 101.513C99.8571 99.6508 99.974 97.7474 100.478 95.9389C100.981 94.1304 101.859 92.4616 103.048 91.0525C103.729 90.1754 104.539 89.418 105.446 88.8089C106.086 88.3939 106.512 88.2368 106.512 88.2817C105.443 89.2435 104.445 90.2898 103.528 91.4115C102.471 92.7872 101.701 94.3808 101.266 96.0893C100.831 97.7977 100.741 99.5832 101.002 101.331C101.264 103.078 101.87 104.748 102.782 106.233C103.694 107.719 104.892 108.987 106.299 109.955C107.495 110.741 108.745 111.431 110.04 112.019Z" fill="#FAFAFA"/>
<path d="M42.0193 123.08L42.5415 121.487L43.5328 122.811C44.3299 123.853 45.3956 124.632 46.6023 125.054L48.1158 125.604L46.8581 126.647C45.8731 127.492 45.1343 128.611 44.7265 129.878L44.2149 131.504L43.1491 130.192C42.3449 129.152 41.2767 128.374 40.0688 127.948L38.566 127.399L39.813 126.355C40.8321 125.509 41.5981 124.372 42.0193 123.08Z" fill="#0047CB"/>
<path d="M92.6029 60.4949L92.9014 59.5751L93.4769 60.3379C93.937 60.9651 94.5585 61.4401 95.2675 61.7065L96.1415 62.0206L95.4167 62.6376C94.8316 63.1207 94.3913 63.7712 94.1484 64.5109L93.8499 65.4308L93.2424 64.6231C92.7858 64.0072 92.1666 63.5468 91.4625 63.2994L90.5779 62.9741L91.3133 62.3683C91.904 61.886 92.3515 61.236 92.6029 60.4949Z" fill="#0047CB"/>
<path d="M31.7767 68.2915L32.6507 65.6104L34.3241 67.854C35.6571 69.6286 37.4482 70.9607 39.4826 71.6905L42.0193 72.6104L39.8876 74.3716C38.2016 75.777 36.9331 77.661 36.2319 79.8011L35.3579 82.4709L33.6952 80.2273C32.3628 78.4495 30.5718 77.1136 28.5367 76.3796L26 75.4597L28.1316 73.7097C29.8116 72.3054 31.0762 70.4258 31.7767 68.2915Z" fill="#0047CB"/>
</svg>
